…
summary(queue_1)
#> $number_customers
#> [1] 200
#> 
#> $missed_customers
#> [1] 0
#> 
#> $qlength_sum
#> # A tibble: 24 × 2
#>    queuelength  proportion
#>          <dbl>       <dbl>
#> 1            0 0.635293164
#> 2            1 0.017711485
#> 3            2 0.019022001
#> 4            3 0.013198290
#> 5            4 0.015530023
#> 6            5 0.013069273
#> 7            6 0.005422745
#> 8            7 0.015264468
#> 9            8 0.013490444
#> 10           9 0.028604615
#> # ... with 14 more rows
#> 
#> $qlength_mean
#> [1] 3.704555
#> 
#> $slength_sum
#> # A tibble: 26 × 2
#>    queuelength  proportion
#>          <dbl>       <dbl>
#> 1            0 0.609011851
#> 2            1 0.013772165
#> 3            2 0.013349133
#> 4            3 0.017670692
#> 5            4 0.018978190
#> 6            5 0.013167892
#> 7            6 0.015494255
#> 8            7 0.013039172
#> 9            8 0.005410256
#> 10           9 0.015229312
#> # ... with 16 more rows
…
summary(queue_2)
#> $number_customers
#> [1] 200
#> 
#> $missed_customers
#> [1] 0
#> 
#> $qlength_sum
#> # A tibble: 32 × 2
#>    queuelength  proportion
#>          <dbl>       <dbl>
#> 1            0 0.545312292
#> 2            1 0.022278305
#> 3            2 0.025908718
#> 4            3 0.030868563
#> 5            4 0.023298844
#> 6            5 0.024395660
#> 7            6 0.009027140
#> 8            7 0.020010249
#> 9            8 0.013111985
#> 10           9 0.008009216
#> # ... with 22 more rows
#> 
#> $qlength_mean
#> [1] 5.711736
#> 
#> $slength_sum
#> # A tibble: 33 × 2
#>    queuelength  proportion
#>          <dbl>       <dbl>
#> 1            0 0.480839692
#> 2            1 0.066087407
#> 3            2 0.022199185
#> 4            3 0.025816704
#> 5            4 0.030758934
#> 6            5 0.023216100
#> 7            6 0.024309019
#> 8            7 0.008995081
#> 9            8 0.019939183
#> 10           9 0.013065419
#> # ... with 23 more rows
…
